time, id1, id2, amount, message
2016-11-01 17:38:25, 49466, 6989, 23.74, 🦄
2016-11-01 17:38:25, 6989, 11940, 23.74, 🦄
2016-11-02 09:38:57, 11940, 3672, 20.70, Subway 
2016-11-02 09:38:57, 3672, 33631, 17.72, Bagel 
2016-11-02 09:38:57, 33631, 14842, 32.95, 💁🏼😎☀️🍺💕 
2016-11-02 09:38:57, 61606, 14841, 47.73, Rehearsal, SON! 
2016-11-02 09:38:57, 32905, 42848, 24.34, DEAD